[

	{
	    "model": "candidates.State",
	    "pk": 1,
	    "fields": {
	      "name": "Andhra Pradesh",
	      "code" : "AD"
	
	    }
	},
	{
	    "model": "candidates.State",
	    "pk": 2,
	    "fields": {
	      "name": "Arunachal Pradesh",
	      "code" : "AR"
	
	    }
	},
	{
	    "model": "candidates.State",
	    "pk": 3,
	    "fields": {
	      "name": "Assam",
	      "code" : "AS"
	
	    }
	},
	{
	    "model": "candidates.State",
	    "pk": 4,
	    "fields": {
	      "name": "Bihar",
	      "code" : "BR"
	
	    }
	},
	{
	    "model": "candidates.State",
	    "pk": 5,
	    "fields": {
	      "name": "Chattisgarh",
	      "code" : "CG"
	
	    }
	},
	{
	    "model": "candidates.State",
	    "pk": 6,
	    "fields": {
	      "name": "Goa",
	      "code" : "GA"
	
	    }
	},
	{
	    "model": "candidates.State",
	    "pk": 7,
	    "fields": {
	      "name": "Gujarat",
	      "code" : "GJ"
	
	    }
	},
	{
	    "model": "candidates.State",
	    "pk": 8,
	    "fields": {
	      "name": "Haryana",
	      "code" : "HR"
	
	    }
	},
	{
	    "model": "candidates.State",
	    "pk": 9,
	    "fields": {
	      "name": "Himachal Pradesh",
	      "code" : "HP"
	
	    }
	},
	{
		"model": "candidates.State",
		"pk": 10,
		"fields": {
			"name": "Jammu and Kashmir",
			"code" : "JK"
		}
	},
	{
		"model": "candidates.State",
		"pk": 11,
		"fields": {
			"name": "Jharkhand",
			"code" : "JH"
		}
	},
	{
		"model": "candidates.State",
		"pk": 12,
		"fields": {
			"name": "Karnataka",
			"code" : "KA"
		}
	},
	{
		"model": "candidates.State",
		"pk": 13,
		"fields": {
			"name": "Kerala",
			"code" : "KL"
		}
	},
	{
		"model": "candidates.State",
		"pk": 14,
		"fields": {
			"name": "Madhya Pradesh",
			"code" : "MP"
		}
	},
	{
	    "model": "candidates.State",
	    "pk": 15,
	    "fields": {
	      "name": "Maharashtra",
	      "code" : "MH"
	
	    }
	},
	{
	    "model": "candidates.State",
	    "pk": 16,
	    "fields": {
	      "name": "Manipur",
	      "code" : "MN"
	
	    }
	},
	{
	    "model": "candidates.State",
	    "pk": 17,
	    "fields": {
	      "name": "Meghalaya",
	      "code" : "ML"
	
	    }
	},
	{
	    "model": "candidates.State",
	    "pk": 18,
	    "fields": {
	      "name": "Mizoram",
	      "code" : "MZ"
	
	    }
	},
	{
	    "model": "candidates.State",
	    "pk": 19,
	    "fields": {
	      "name": "Nagaland",
	      "code" : "NL"
	
	    }
	},

	{
	    "model": "candidates.State",
	    "pk": 20,
	    "fields": {
	      "name": "Odisha",
	      "code" : "OD"
	
	    }
	},
	{
	    "model": "candidates.State",
	    "pk": 21,
	    "fields": {
	      "name": "Punjab",
	      "code" : "PB"
	
	    }
	},
	{
	    "model": "candidates.State",
	    "pk": 22,
	    "fields": {
	      "name": "Rajasthan",
	      "code" : "RJ"
	
	    }
	},
	{
	    "model": "candidates.State",
	    "pk": 23,
	    "fields": {
	      "name": "Sikkim",
	      "code" : "SK"
	
	    }
	},
	{
	    "model": "candidates.State",
	    "pk": 24,
	    "fields": {
	      "name": "Tamil Nadu",
	      "code" : "TN"
	
	    }
	},
	{
	    "model": "candidates.State",
	    "pk": 25,
	    "fields": {
	      "name": "Telangana",
	      "code" : "TS"
	
	    }
	},

	{
	    "model": "candidates.State",
	    "pk": 26,
	    "fields": {
	      "name": "Tripura",
	      "code" : "TR"
	
	    }
	},
	{
	    "model": "candidates.State",
	    "pk": 27,
	    "fields": {
	      "name": "Uttar Pradesh",
	      "code" : "UP"
	
	    }
	},
	{
	    "model": "candidates.State",
	    "pk": 28,
	    "fields": {
	      "name": "Uttarakhand",
	      "code" : "UK"
	
	    }
	},
	{
	    "model": "candidates.State",
	    "pk": 29,
	    "fields": {
	      "name": "West Bengal",
	      "code" : "SK"
	
	    }
	}

]
